255 128 128
255 128 128
255 128 128
255 128 128
255 128 128
255 128 128
255 128 128
255 128 128
255 128 128
255 128 128
255 128 128
255 128 128
255 128 128
255 128 128
255 128 128
255 128 128
255 128 128
255 128 128
255 128 128
255 128 128
255 128 128
255 128 128
255 128 128
255 128 128
255 128 128
255 128 128
255 128 128
255 128 128
255 128 128
255 128 128
255 128 128
255 128 128
255 128 128
255 128 128
255 128 128
255 128 128
255 128 128
255 128 128
255 128 128
255 128 128
255 128 128
255 128 128
255 128 128
255 128 128
255 128 128
255 128 128
255 128 128
255 128 128
255 128 128
255 128 128
255 128 128
255 128 128
255 128 128
255 128 128
255 128 128
255 128 128
255 128 128
255 128 128
255 128 128
255 128 128
255 128 128
255 128 128
255 128 128
255 128 128
255 128 128
255 128 128
255 128 128
255 128 128
255 128 128
255 128 128
255 128 128
255 128 128
255 128 128
255 128 128
255 128 128
255 128 128
255 128 128
255 128 128
255 128 128
255 128 128
255 128 128
255 128 128
255 128 128
255 128 128
255 128 128
255 128 128
255 128 128
255 128 128
255 128 128
255 128 128
255 128 128
255 128 128
255 128 128
255 128 128
255 128 128
255 128 128
255 128 128
255 128 128
255 128 128
255 128 128
255 128 128
255 128 128
255 128 128
255 128 128
255 128 128
255 128 128
255 128 128
255 128 128
255 128 128
255 128 128
255 128 128
255 128 128
255 128 128
255 128 128
255 128 128
255 128 128
255 128 128
255 128 128
255 128 128
255 128 128
255 128 128
255 128 128
255 128 128
255 128 128
255 128 128
255 128 128
255 128 128
255 128 128
255 128 128
255 128 128
255 128 128
255 128 128
255 128 128
255 128 128
255 128 128
255 128 128
255 128 128
255 128 128
255 128 128
255 128 128
255 128 128
255 128 128
255 128 128
255 128 128
255 128 128
255 128 128
255 128 128
255 128 128
255 128 128
255 128 128
255 128 128
255 128 128
255 128 128
255 128 128
255 128 128
255 128 128
255 128 128
255 128 128
255 128 128
255 128 128
255 128 128
255 128 128
255 128 128
255 128 128
255 128 128
255 128 128
255 128 128
255 128 128
255 128 128
255 128 128
255 128 128
255 128 128
255 128 128
255 128 128
255 128 128
255 128 128
255 128 128
255 128 128
255 128 128
255 128 128
255 128 128
255 128 128
255 128 128
255 128 128
255 128 128
255 128 128
255 128 128
255 128 128
255 128 128
255 128 128
255 128 128
255 128 128
255 128 128
255 128 128
255 128 128
255 128 128
255 128 128
255 128 128
255 128 128
255 128 128
255 128 128
255 128 128
255 128 128
255 128 128
255 128 128
255 128 128
255 128 128
255 128 128
255 128 128
255 128 128
255 128 128
255 128 128
255 128 128
255 128 128
255 128 128
255 128 128
255 128 128
255 128 128
255 128 128
255 128 128
255 128 128
255 128 128
255 128 128
255 128 128
255 128 128
255 128 128
255 128 128
255 128 128
255 128 128
255 128 128
255 128 128
255 128 128
255 128 128
255 128 128
255 128 128
255 128 128
255 128 128
255 128 128
255 128 128
255 128 128
255 128 128
255 128 128
255 128 128
255 128 128
255 128 128
255 128 128
255 128 128
255 128 128
255 128 128
255 128 128
255 128 128
255 128 128
255 128 128
255 128 128
255 128 128
255 128 128
255 128 128
255 128 128
255 128 128
255 128 128
255 128 128
255 128 128
255 128 128
255 128 128
255 128 128
255 128 128
255 128 128
255 128 128
255 128 128
255 128 128
255 128 128
255 128 128
255 128 128
255 128 128
255 128 128
255 128 128
255 128 128
255 128 128
255 128 128
255 128 128
255 128 128
255 128 128
255 128 128
255 128 128
255 128 128
255 128 128
255 128 128
255 128 128
255 128 128
255 128 128
255 128 128
255 128 128
255 128 128
255 128 128
255 128 128
255 128 128
255 128 128
255 128 128
255 128 128
255 128 128
255 128 128
255 128 128
255 128 128
255 127 129
255 128 128
255 128 128
255 128 128
255 128 128
255 128 128
255 128 128
255 128 128
255 128 128
255 128 128
255 128 129
255 128 128
255 128 128
255 128 128
255 128 128
255 128 128
255 127 128
255 127 129
255 128 128
255 128 128
254 128 128
255 127 128
255 128 128
255 127 128
255 128 128
254 126 128
255 127 129
255 126 130
255 128 128
255 128 128
254 128 128
255 127 130
255 127 129
254 126 130
255 128 128
255 127 130
255 127 129
255 128 129
255 128 128
254 126 128
214 125 119
58 128 128
148 127 126
92 128 120
230 127 125
129 125 120
137 125 120
240 127 127
153 127 121
147 127 121
188 127 124
58 127 118
242 127 126
99 127 117
240 127 126
135 128 117
148 128 115
235 127 126
131 124 120
166 126 118
199 125 121
220 127 127
111 128 118
136 126 119
166 124 116
196 126 119
181 126 111
185 127 121
71 128 128
192 125 123
191 125 121
180 125 120
238 127 126
134 126 120
131 126 117
204 125 123
120 127 113
177 124 118
240 127 126
52 125 118
180 126 118
164 125 119
109 125 117
150 125 117
75 125 118
169 125 119
147 125 119
134 125 120
55 127 117
131 125 113
131 125 116
218 125 125
74 128 128
188 125 122
131 124 120
53 126 117
111 125 117
72 125 118
81 127 117
75 128 128
66 129 127
66 129 125
193 129 120
203 128 122
68 127 121
203 129 124
117 131 122
124 131 111
223 126 125
237 128 125
240 127 127
74 125 118
169 125 119
191 126 120
186 125 120
231 127 125
168 127 122
127 126 119
153 126 121
82 127 110
176 122 121
179 125 119
234 126 125
141 125 117
187 125 119
159 125 116
198 126 123
178 126 115
150 126 118
139 126 117
237 127 126
150 127 114
148 126 118
102 126 117
222 124 126
149 124 117
147 125 113
116 126 117
164 126 126
74 129 126
188 125 117
63 129 127
192 129 119
209 129 120
38 128 127
64 129 130
77 127 128
108 130 120
115 128 118
239 128 126
239 127 127
175 125 120
181 126 119
199 125 124
86 124 116
179 125 119
133 125 114
105 124 119
233 126 125
175 124 118
172 124 116
207 126 119
146 125 118
117 127 119
219 126 123
225 126 124
130 126 116
196 127 121
134 125 119
69 128 128
199 124 123
185 126 120
97 125 116
86 125 117
129 123 117
122 126 117
107 126 117
116 127 123
209 127 123
98 128 125
231 127 125
80 127 117
173 125 119
196 125 121
220 127 123
98 126 121
150 125 121
104 127 115
190 125 120
176 126 117
138 124 118
150 126 118
193 127 114
143 126 118
192 126 115
71 127 127
207 129 119
217 129 124
212 127 127
52 127 128
74 128 128
162 127 127
170 128 122
77 127 125
111 129 120
109 128 125
238 129 124
240 127 127
239 127 127
40 127 119
191 126 120
176 126 120
206 126 122
200 125 124
155 126 120
152 127 122
137 126 119
184 124 123
183 125 121
42 125 117
79 124 114
105 124 113
115 124 115
158 124 112
241 128 126
142 126 118
133 125 121
152 124 114
236 127 127
144 125 118
167 124 112
134 126 117
233 128 122
153 124 118
154 125 119
225 126 126
225 127 125
144 125 121
86 126 117
156 125 116
141 128 112
117 126 121
175 127 115
196 129 122
75 128 124
174 124 123
147 126 122
163 125 120
168 125 122
106 125 117
101 126 117
155 122 118
127 125 115
179 125 119
123 126 117
97 125 119
75 129 123
131 128 126
201 128 123
214 129 118
233 127 125
95 128 119
192 124 119
210 126 125
80 125 122
166 126 125
72 124 116
80 124 114
96 124 113
108 125 112
140 126 117
126 127 117
159 126 117
114 124 119
174 126 118
215 124 117
89 128 130
169 126 117
211 125 118
212 129 127
232 129 126
65 128 123
104 127 118
102 129 129
237 128 125
48 126 119
144 126 117
169 126 117
183 125 120
213 125 122
108 125 116
211 124 122
93 123 115
158 123 115
237 127 126
162 123 122
165 126 118
236 127 127
244 127 127
158 125 117
149 125 117
165 126 116
162 123 113
142 125 116
233 127 126
167 125 118
151 124 120
230 126 126
230 127 125
7 128 122
124 126 117
141 126 119
183 125 116
192 126 123
166 126 111
100 129 123
87 128 128
143 127 121
121 126 116
141 125 117
164 124 118
121 125 118
163 130 119
199 129 127
234 127 126
107 128 115
186 125 118
203 126 123
72 125 121
134 126 121
242 128 126
167 124 122
121 126 117
229 127 125
149 126 117
132 125 113
241 127 128
163 126 118
224 126 124
225 129 122
213 125 115
174 126 118
164 125 118
107 126 118
208 125 116
73 128 128
214 128 130
234 128 127
52 128 128
106 127 121
53 127 125
80 128 128
100 129 128
117 128 131
239 127 127
241 126 127
191 126 120
196 125 120
231 126 125
138 127 122
121 124 117
105 125 116
130 126 117
155 123 119
147 125 117
155 125 119
189 126 122
220 128 122
239 127 127
171 125 120
162 125 115
204 123 121
236 128 125
38 127 119
160 126 117
122 124 121
229 125 124
231 127 126
32 128 118
150 125 117
134 125 117
203 127 124
185 125 108
121 129 129
80 128 128
65 128 119
115 125 119
123 125 119
157 126 118
151 125 117
157 125 118
146 125 117
97 129 111
192 126 121
112 129 130
241 128 126
131 126 118
170 127 116
204 126 123
72 126 120
162 127 122
162 127 122
189 126 120
89 125 118
96 125 116
124 123 113
241 126 125
182 125 120
149 124 115
224 127 124
162 126 118
237 126 125
175 123 119
161 125 119
211 126 121
207 128 116
148 125 115
233 129 129
236 127 128
66 129 126
117 127 125
58 128 125
89 128 127
112 128 128
103 128 127
239 127 127
240 127 127
94 127 118
183 128 112
199 126 119
234 127 125
165 125 120
108 123 117
126 124 114
160 124 114
120 125 117
150 125 120
174 123 122
172 126 122
232 128 124
239 127 126
168 125 119
158 125 119
160 122 114
228 125 124
237 127 127
150 125 117
152 126 117
165 126 115
167 126 115
154 125 117
120 125 119
229 127 125
231 127 126
105 126 116
119 126 116
184 126 121
190 125 111
208 125 115
106 128 127
168 127 118
155 127 121
90 129 125
47 127 119
172 124 121
241 130 123
163 125 118
144 124 121
152 125 119
113 125 116
145 125 116
50 125 125
184 129 113
100 128 124
102 128 127
242 128 125
130 126 117
192 127 117
202 126 123
92 126 121
154 125 119
182 125 120
153 127 120
158 126 122
130 126 117
239 127 127
169 124 121
210 127 121
174 126 118
187 125 120
216 127 123
167 126 118
229 127 125
183 126 119
105 129 110
220 126 118
237 129 128
139 128 115
169 124 115
196 126 115
236 129 130
235 130 129
63 129 127
168 127 121
54 127 125
83 128 125
102 128 126
114 127 127
105 127 127
242 128 127
235 127 127
125 126 120
196 126 120
236 127 125
170 126 120
119 123 125
122 126 116
179 125 122
153 126 122
176 124 117
247 128 127
151 125 119
236 129 124
242 127 127
119 125 118
145 125 119
178 125 119
173 124 117
145 125 112
156 123 114
237 126 127
182 126 118
56 127 116
156 126 118
185 127 114
75 127 116
232 127 125
122 125 114
144 124 115
119 126 111
122 126 116
186 125 113
106 128 127
183 126 123
142 127 123
82 129 127
69 126 119
116 125 119
232 125 123
146 125 117
174 125 119
117 125 117
148 126 115
114 128 111
135 125 112
149 125 120
249 129 128
236 128 129
172 126 119
119 128 125
244 128 126
126 126 119
185 126 119
199 125 120
153 126 121
88 125 118
158 126 121
179 125 119
154 125 119
170 125 122
226 126 123
185 125 122
211 126 123
202 125 121
153 126 116
92 126 118
210 126 119
124 130 106
213 125 123
206 127 120
234 129 127
85 130 117
99 128 122
123 129 119
108 128 124
244 128 126
244 128 127
227 125 125
143 126 120
192 126 120
196 125 120
128 125 120
138 125 120
151 124 119
126 124 119
174 124 116
88 126 116
155 126 118
175 126 121
164 125 122
238 128 126
240 127 125
158 125 119
176 123 114
231 127 127
239 128 126
131 125 119
118 127 114
125 130 106
196 123 112
122 126 128
121 128 121
81 126 120
225 125 125
119 124 117
115 124 117
171 125 122
183 124 115
148 125 116
166 124 120
153 126 118
135 125 118
145 124 116
125 124 119
248 129 129
238 128 129
167 125 113
107 128 121
243 128 126
164 126 121
180 124 120
85 125 120
93 125 119
173 125 118
156 125 119
181 126 121
133 125 113
160 125 119
235 128 125
115 127 119
37 127 115
187 127 120
194 126 109
218 126 119
178 126 118
147 124 115
235 128 129
240 129 128
238 127 129
86 130 119
84 129 123
108 128 125
118 127 125
97 127 126
244 128 126
245 127 127
245 129 127
221 126 125
147 126 119
189 126 120
176 125 120
163 125 120
171 127 120
120 125 121
169 126 123
157 126 118
190 124 117
151 126 121
163 127 122
168 126 121
240 125 127
168 126 119
174 126 122
130 126 117
129 126 111
153 125 118
159 124 116
241 128 129
117 129 128
104 123 121
91 128 127
112 126 121
216 126 123
112 122 117
139 123 117
153 125 118
152 124 118
233 128 130
235 129 129
142 125 122
117 128 125
243 128 126
157 126 121
174 125 120
174 123 122
68 126 120
102 124 119
135 124 114
145 124 118
139 125 116
187 125 120
161 126 120
168 126 121
168 126 123
56 127 115
94 127 116
47 126 116
188 124 118
203 124 112
213 126 118
174 122 117
239 128 129
238 127 132
84 128 125
101 128 122
103 131 119
113 126 120
88 125 129
247 127 127
243 129 126
157 126 121
193 125 120
126 126 112
165 126 120
187 123 115
120 127 116
123 126 118
124 126 121
181 124 116
103 125 117
121 125 116
130 124 116
119 123 116
242 127 127
170 125 122
184 125 118
151 126 122
235 127 124
55 126 117
125 125 113
154 126 119
109 124 121
126 125 113
20 128 115
155 125 117
238 129 128
201 126 112
92 127 122
112 128 117
185 125 117
102 130 119
63 129 120
138 122 118
73 129 120
118 129 123
244 128 126
156 126 121
179 125 122
150 124 121
100 126 119
172 125 122
176 124 119
123 125 119
98 125 113
74 126 116
162 126 121
147 127 121
54 126 116
238 127 126
52 126 116
106 126 117
137 124 116
185 124 115
235 128 130
184 125 120
226 126 124
151 124 121
216 126 122
164 125 122
144 126 119
181 125 115
132 124 116
147 124 114
133 124 116
108 124 116
242 126 127
75 125 118
157 127 114
159 125 118
160 125 117
137 123 115
205 131 107
9 132 113
174 126 121
144 125 117
146 125 114
211 124 122
176 125 121
116 129 119
141 125 116
99 129 129
176 125 119
125 125 119
168 124 122
175 124 124
164 125 121
221 128 120
148 124 123
144 125 121
77 127 113
125 125 119
109 124 115
158 125 119
181 123 118
96 126 116
134 124 116
124 125 116
220 126 121
238 128 129
183 126 120
113 129 126
241 128 127
236 128 129
237 128 129
101 127 123
133 124 120
147 125 119
239 127 126
50 126 115
143 126 118
166 125 119
235 126 124
199 130 104
161 124 115
96 129 112
188 132 97
140 126 102
185 123 106
65 129 106
119 127 98
53 134 101
175 123 112
160 126 121
250 129 128
250 129 128
250 129 128
125 127 93
122 126 120
160 126 123
144 125 119
161 127 118
216 125 120
159 126 121
174 124 115
78 126 118
121 125 119
134 125 119
156 124 117
206 126 115
47 132 104
10 128 126
198 126 116
248 129 130
55 132 112
67 130 112
43 131 105
223 125 115
108 134 96
134 126 117
156 131 106
183 131 93
212 126 118
195 125 113
246 129 128
190 125 106
163 131 94
23 133 105
11 134 115
181 136 92
199 132 99
206 131 104
204 131 102
199 130 100
163 125 120
208 125 117
91 129 108
174 132 92
190 133 102
124 131 107
199 126 116
77 138 94
140 128 118
123 124 117
118 125 120
173 126 122
120 127 120
192 132 96
186 130 96
180 132 93
167 129 93
131 125 116
198 125 114
10 128 130
115 129 129
126 127 123
55 130 131
76 129 132
80 128 132
114 132 129
141 121 120
114 126 120
180 131 130
157 135 86
233 128 121
130 127 115
158 129 130
157 133 89
3 130 125
124 130 131
78 131 131
90 129 130
20 132 131
88 130 129
86 129 130
95 130 130
20 130 130
136 130 131
115 130 131
149 131 131
118 129 130
64 130 129
78 130 129
128 130 129
174 130 93
169 135 89
163 133 88
179 132 92
195 130 100
126 125 121
214 124 116
81 131 103
36 130 132
208 130 131
206 126 118
114 131 121
85 132 104
51 131 107
0 130 126
156 132 89
175 132 92
183 132 92
177 132 92
237 127 126
183 125 122
197 126 113
161 129 129
26 131 130
147 129 131
120 129 130
45 133 104
97 136 88
105 126 116
154 126 117
178 127 112
72 132 98
83 134 93
137 129 131
29 131 132
14 130 130
205 128 130
30 129 129
185 129 128
165 131 93
169 132 91
189 125 109
207 126 115
29 131 133
194 131 131
40 131 132
41 131 132
139 129 130
19 132 110
37 133 104
83 129 130
9 128 128
102 128 128
158 132 89
77 139 90
81 140 88
71 138 90
142 125 120
120 131 131
37 130 135
204 129 131
17 130 131
19 128 128
89 138 90
101 140 86
91 139 89
236 127 124
182 126 105
214 127 119
45 131 136
43 130 112
95 129 128
38 130 129
23 130 131
171 128 131
24 130 131
16 130 128
19 128 129
14 128 128
103 139 87
174 124 119
148 125 115
93 130 99
141 142 87
211 125 113
17 130 130
7 130 128
179 124 124
152 127 122
92 129 108
31 128 129
18 130 130
19 128 131
27 130 131
27 130 130
27 128 131
17 130 130
16 126 129
211 128 128
74 130 128
196 127 117
169 129 129
149 129 134
122 124 120
234 128 127
25 130 131
153 132 90
62 124 119
161 125 116
167 125 117
185 133 103
217 125 115
160 129 114
122 129 129
238 129 127
236 130 124
168 133 92
238 128 129
106 129 128
109 132 105
186 132 93
172 133 91
184 131 97
87 128 130
215 127 129
234 128 129
183 132 91
184 132 92
174 134 89
168 134 92
190 131 99
195 131 97
185 137 95
198 132 101
167 133 93
205 132 102
155 138 85
182 132 96
180 132 96
183 130 97
183 131 97
180 131 96
176 132 94
179 132 95
200 131 101
215 131 108
226 129 119
211 127 129
204 132 102
237 129 127
237 128 128
207 127 119
225 127 119
221 129 129
119 129 122
240 129 127
146 131 132
123 125 117
200 129 102
209 130 111
175 135 88
188 132 94
163 134 92
191 132 96
195 130 98
207 131 106
145 129 119
244 128 128
162 129 122
241 128 128
176 135 89
188 132 100
194 133 98
195 129 100
190 131 92
197 128 110
249 129 126
99 125 124
66 123 121
144 125 117
138 126 117
163 124 118
228 126 124
124 125 118
207 127 111
198 127 110
215 128 109
200 125 114
212 125 115
220 127 124
241 129 126
238 129 128
194 127 123
85 126 117
239 129 128
241 129 128
230 128 127
170 127 123
159 127 127
142 123 117
86 124 117
119 125 117
137 126 117
117 124 120
159 125 119
197 125 118
154 126 118
220 129 113
48 128 121
182 125 119
157 126 121
216 125 125
126 124 117
170 125 119
146 125 120
147 124 115
215 128 114
129 125 120
216 125 125
43 126 121
109 126 117
117 122 117
176 125 119
121 129 122
187 128 122
244 128 128
176 127 126
147 128 126
149 128 127
130 129 125
133 127 127
106 126 121
184 127 117
128 126 118
209 125 121
42 125 118
165 126 123
186 126 118
212 123 117
58 128 124
187 128 125
99 124 116
71 127 115
111 129 118
238 129 127
241 129 129
242 129 126
72 126 117
120 132 109
237 129 126
244 128 128
222 127 132
75 125 122
94 123 122
87 125 117
68 125 118
108 122 117
135 124 112
102 125 116
91 125 114
223 127 124
227 127 124
120 126 117
157 124 115
144 125 119
100 123 121
211 124 116
189 124 116
55 126 118
117 125 116
234 128 131
235 128 131
73 127 119
101 132 111
159 130 117
159 127 127
103 126 128
127 125 118
60 129 115
95 126 116
205 127 120
104 126 116
155 125 114
160 126 121
169 126 121
202 126 115
242 128 126
236 129 127
212 128 112
249 129 128
244 129 128
165 126 127
243 129 128
178 129 123
158 129 115
59 125 127
185 127 121
104 123 115
64 126 119
113 125 119
139 126 119
119 126 117
232 126 125
216 126 125
107 126 119
122 126 120
130 127 119
221 126 126
229 126 126
160 124 115
141 126 117
160 126 118
182 126 120
139 126 119
204 125 116
90 125 118
87 125 118
174 125 112
65 127 116
121 126 117
88 125 117
107 126 113
249 129 128
250 129 128
87 130 116
117 129 117
247 127 127
242 129 128
147 128 126
140 129 122
89 122 115
188 125 121
123 126 119
77 125 117
79 125 113
64 124 115
240 126 127
229 127 127
211 125 114
240 129 128
244 129 128
179 129 120
225 127 123
239 128 126
106 127 125
91 123 117
70 125 115
228 127 124
196 124 122
103 126 118
126 125 118
119 126 120
217 127 124
236 127 127
43 130 118
144 129 112
87 127 111
244 127 125
47 127 114
247 129 128
77 125 115
181 126 125
65 125 117
137 125 119
137 125 121
32 122 126
104 123 116
234 128 130
234 128 130
237 128 130
200 129 123
249 127 127
243 129 128
55 126 118
70 126 115
104 125 122
72 126 118
240 128 128
209 128 114
249 127 127
96 128 106
38 127 127
237 128 126
242 128 127
244 130 124
206 129 127
241 126 127
231 129 129
215 126 131
225 126 131
240 128 126
243 127 127
47 127 127
233 129 127
189 128 124
121 129 120
114 126 128
46 126 127
32 127 125
104 123 114
32 125 120
68 126 115
204 125 118
95 126 117
139 126 117
111 126 120
187 125 121
218 126 125
235 126 125
70 124 119
113 126 113
94 125 112
240 127 123
190 125 112
229 130 128
140 127 122
224 128 125
242 128 126
88 129 108
42 127 125
146 126 118
14 126 125
102 129 105
158 127 123
168 130 119
169 129 121
178 130 120
125 129 123
129 128 125
130 128 125
135 128 124
65 127 127
108 129 127
101 129 128
47 125 118
150 126 120
242 128 127
214 126 117
152 124 120
92 126 110
102 129 128
92 130 130
241 129 128
244 129 124
238 130 129
58 127 118
112 129 119
135 127 125
243 127 127
239 127 126
45 130 121
245 128 126
225 128 128
121 129 122
131 127 122
94 127 129
41 125 122
150 124 112
117 127 119
137 124 122
207 126 123
218 126 125
196 126 118
43 123 122
82 125 113
95 124 114
109 125 112
192 124 122
248 128 127
201 125 115
240 129 127
106 124 114
94 129 116
34 129 122
106 128 127
146 127 119
40 127 124
118 125 115
9 128 126
111 128 120
109 128 122
135 130 113
242 127 127
58 126 128
242 129 127
127 129 121
26 125 121
168 125 121
231 127 127
199 126 110
241 126 128
198 128 110
108 125 112
168 128 121
244 128 126
245 128 126
241 128 128
240 128 128
112 126 121
123 128 119
74 128 127
245 129 128
148 126 126
150 129 119
16 126 127
92 126 110
244 127 124
208 125 114
122 127 128
149 128 120
217 126 117
195 128 124
91 126 119
118 129 125
103 125 112
220 127 128
236 129 128
224 127 128
118 129 123
122 131 123
233 128 127
104 129 125
102 129 129
225 127 127
233 127 129
234 128 128
232 128 128
235 129 127
231 130 126
125 128 125
124 128 124
122 128 122
147 130 123
115 128 128
110 128 125
139 125 119
77 126 121
77 126 121
112 125 121
106 125 116
94 128 115
80 125 123
210 119 117
207 124 115
255 128 128
255 128 128
255 128 128
255 128 128
255 128 128
255 128 128
255 128 128
255 128 128
255 128 128
255 128 128
255 128 128
255 128 128
255 128 128
255 128 128
255 128 128
255 128 128
255 128 128
255 128 128
255 128 128
255 128 128
255 128 128
255 128 128
255 128 128
255 128 128
255 128 128
255 128 128
255 128 128
255 128 128
255 128 128
255 128 128
255 128 128
255 128 128
255 128 128
255 128 128
255 128 128
255 128 128
255 128 128
255 128 128
255 128 128
255 128 128
255 128 128
255 128 128
255 128 128
255 128 128
255 128 128
255 128 128
255 128 128
255 128 128
255 128 128
255 128 128
255 128 128
255 128 128
255 128 128
255 128 128
255 128 128
255 128 128
255 128 128
255 128 128
255 128 128
255 128 128
255 128 128
255 128 128
255 128 128
255 128 128
255 128 128
255 128 128
255 128 128
255 128 128
255 128 128
255 128 128
255 128 128
255 128 128
255 128 128
255 128 128
255 128 128
255 128 128
255 128 128
255 128 128
255 128 128
255 128 128
255 128 128
255 128 128
255 128 128
255 128 128
255 128 128
255 128 128
255 128 128
255 128 128
255 128 128
255 128 128
255 128 128
255 128 128
255 128 128
255 128 128
255 128 128
255 128 128
255 128 128
255 128 128
255 128 128
255 128 128
255 128 128
255 128 128
255 128 128
255 128 128
255 128 128
255 128 128
255 128 128
255 128 128
255 128 128
255 128 128
255 128 128
255 128 128
255 128 128
255 128 128
255 128 128
255 128 128
255 128 128
255 128 128
255 128 128
255 128 128
255 128 128
255 128 128
255 128 128
255 128 128
255 128 128
255 128 128
255 128 128
255 128 128
255 128 128
255 128 128
255 128 128
255 128 128
255 128 128
255 128 128
255 128 128
255 128 128
255 128 128
255 128 128
255 128 128
255 128 128
255 128 128
255 128 128
255 128 128
255 128 128
255 128 128
255 128 128
255 128 128
255 128 128
255 128 128
255 128 128
255 128 128
255 128 128
255 128 128
255 128 128
255 128 128
255 128 128
255 128 128
255 128 128
255 128 128
255 128 128
255 128 128
255 128 128
255 128 128
255 128 128
255 128 128
255 128 128
255 128 128
255 128 128
255 128 128
255 128 128
255 128 128
255 128 128
255 128 128
255 128 128
255 128 128
255 128 128
255 128 128
255 128 128
255 128 128
255 128 128
255 128 128
255 128 128
255 128 128
255 128 128
255 128 128
255 128 128
255 128 128
255 128 128
255 128 128
255 128 128
255 128 128
255 128 128
255 128 128
255 128 128
255 128 128
255 128 128
255 128 128
255 128 128
255 128 128
255 128 128
255 128 128
255 128 128
255 128 128
255 128 128
255 128 128
255 128 128
255 128 128
255 128 128
255 128 128
255 128 128
255 128 128
255 128 128
255 128 128
255 128 128
255 128 128
255 128 128
255 128 128
255 128 128
255 128 128
255 128 128
255 128 128
255 128 128
255 128 128
255 128 128
255 128 128
255 128 128
255 128 128
255 128 128
255 128 128
255 128 128
255 128 128
255 128 128
255 128 128
255 128 128
255 128 128
255 128 128
255 128 128
255 128 128
255 128 128
255 128 128
255 128 128
255 128 128
255 128 128
255 128 128
255 128 128
255 128 128
255 128 128
255 128 128
255 128 128
255 128 128
255 128 128
255 128 128
255 128 128
255 128 128
255 128 128
255 128 128
255 128 128
255 128 128
255 128 128
255 128 128
255 128 128
255 128 128
255 128 128
255 128 128
255 128 128
255 128 128
255 128 128
255 128 128
255 128 128
255 128 128
255 128 128
255 128 128
255 128 128
255 128 128
255 128 128
255 128 128
255 128 128
255 128 128
255 128 128
255 128 128
255 128 128
255 128 128
255 128 128
255 128 128
255 128 128
255 128 128
255 128 128
255 128 128
255 128 128
255 128 128
255 128 128
255 128 128
255 128 128
255 128 128
255 128 128
255 128 128
255 128 128
255 128 128
255 128 128
255 128 128
255 128 128
255 128 128
255 128 128
255 128 128
255 128 128
255 128 128
255 128 128
255 128 128
255 128 128
255 128 128
255 128 128
255 128 128
255 128 128
255 128 128
255 128 128
255 128 128
