255 128 128
255 128 128
255 128 128
255 128 128
255 128 128
255 128 128
255 128 128
255 128 128
255 128 128
255 128 128
255 128 128
255 128 128
255 128 128
255 128 128
255 128 128
255 128 128
255 128 128
255 128 128
255 128 128
255 128 128
255 128 128
255 128 128
255 128 128
255 128 128
255 128 128
255 128 128
255 128 128
255 128 128
255 128 128
255 128 128
255 128 128
255 128 128
255 128 128
255 128 128
255 128 128
255 128 128
255 128 128
255 128 128
255 128 128
255 128 128
255 128 128
255 128 128
255 128 128
255 128 128
255 128 128
255 128 128
255 128 128
255 128 128
255 128 128
255 128 128
255 128 128
255 128 128
255 128 128
255 128 128
255 128 128
255 128 128
255 128 128
255 128 128
255 128 128
255 128 128
255 128 128
255 128 128
255 128 128
255 128 128
255 128 128
255 128 128
255 128 128
255 128 128
255 128 128
255 128 128
255 128 128
255 128 128
255 128 128
255 128 128
255 128 128
255 128 128
255 128 128
255 128 128
255 128 128
255 128 128
255 128 128
57 128 128
203 128 121
204 128 123
54 128 125
52 130 125
117 129 124
100 127 127
237 127 126
241 126 127
187 125 121
185 126 121
215 127 124
74 127 120
152 126 121
131 127 121
241 128 125
89 126 115
101 125 119
153 125 118
197 126 122
142 125 118
192 125 121
234 127 125
38 127 118
186 127 120
172 127 119
227 126 124
189 126 123
134 125 120
105 126 120
221 127 125
197 126 122
153 124 119
156 125 116
112 126 121
192 125 114
68 128 128
153 126 128
204 128 122
69 127 123
185 130 124
228 127 125
125 125 119
182 125 120
213 127 123
113 126 119
168 125 118
175 124 118
239 127 127
120 125 114
149 123 117
235 127 125
131 125 119
218 125 123
153 125 111
157 125 119
61 129 127
200 129 120
49 127 129
117 131 120
104 128 122
236 128 126
188 126 121
185 125 120
225 126 125
221 126 124
181 125 120
183 125 118
191 125 122
235 127 126
179 123 116
228 126 125
108 127 117
225 126 125
158 124 116
77 125 119
197 126 113
43 127 126
186 128 121
242 127 127
141 126 117
205 127 122
156 123 116
241 127 126
146 124 119
231 127 125
230 127 126
193 125 110
162 125 116
132 126 118
176 126 106
196 126 120
153 127 119
138 125 121
68 128 128
213 128 121
216 129 127
66 129 131
119 128 121
98 129 124
235 128 125
178 126 120
180 126 120
228 127 125
102 124 112
216 127 123
153 125 121
238 127 127
171 126 118
159 124 112
233 127 126
143 125 119
228 127 125
166 124 115
200 126 123
124 127 116
162 126 115
87 128 127
135 124 121
235 127 127
155 125 116
149 125 119
184 125 109
202 127 117
103 124 114
63 129 128
114 127 128
140 126 121
220 129 127
230 128 129
100 128 131
236 128 126
150 126 117
176 125 119
232 127 126
120 124 112
230 126 124
149 124 122
239 127 127
155 122 112
238 127 126
173 125 118
229 127 125
212 127 121
173 127 117
165 122 113
160 126 118
140 124 116
101 127 121
92 128 128
152 126 118
232 129 124
160 126 118
107 126 116
213 125 114
214 125 118
141 123 120
175 125 122
92 124 114
165 126 114
70 128 128
220 129 129
234 127 129
67 127 130
103 127 128
241 127 127
231 127 124
174 125 115
190 126 120
154 124 118
235 127 126
155 124 121
179 126 121
240 127 127
165 127 116
168 124 114
239 128 126
112 125 117
234 127 126
182 127 118
35 127 127
190 123 122
165 124 118
176 125 118
159 125 120
166 126 117
201 127 121
167 124 114
136 126 118
193 125 113
207 125 117
92 130 121
144 125 121
193 125 109
96 125 114
170 126 117
103 129 127
184 125 112
248 129 128
234 129 128
239 127 127
63 128 128
93 127 125
242 127 127
212 127 123
160 129 110
201 126 120
166 125 120
171 126 124
143 124 115
206 123 120
170 126 122
242 128 126
177 125 118
157 124 115
238 127 127
172 126 118
152 125 115
233 127 126
143 127 117
183 124 113
52 126 125
157 126 116
150 125 119
160 125 120
177 126 117
145 126 117
183 126 119
126 129 110
192 125 113
215 125 118
163 126 120
126 126 117
249 129 128
234 128 129
234 130 128
106 128 126
107 127 126
245 127 127
213 126 123
186 126 115
181 125 120
167 124 125
189 127 124
177 125 122
144 126 121
166 125 114
151 125 119
242 127 127
160 121 117
239 127 127
161 126 118
115 127 114
232 127 126
144 127 117
190 121 112
124 126 120
90 128 127
117 129 129
212 126 123
143 126 118
162 126 117
126 124 121
133 125 119
90 126 118
204 124 115
222 127 118
199 126 118
147 125 119
157 126 121
247 129 129
240 129 129
234 129 128
151 128 121
246 127 127
212 126 123
192 125 120
242 127 126
201 125 125
158 126 120
171 126 113
168 124 122
239 126 128
151 125 116
240 128 126
121 124 114
231 127 125
136 125 116
208 121 118
111 127 117
181 125 120
147 125 120
112 126 117
175 126 120
117 125 119
131 124 115
119 124 115
245 129 129
237 132 128
85 130 119
183 126 123
245 127 127
194 126 123
185 125 120
243 127 128
225 128 126
156 125 119
187 123 117
167 126 119
242 127 127
152 127 122
239 127 126
148 126 116
124 124 115
212 124 115
62 129 121
84 128 119
153 125 120
148 125 119
72 126 116
203 126 119
133 125 116
147 125 122
159 126 118
138 123 117
159 126 113
203 127 128
229 127 130
86 129 127
125 129 120
210 124 127
246 127 127
157 126 121
189 126 120
193 125 120
242 127 128
207 127 122
179 125 113
112 124 114
242 126 127
141 126 122
238 127 128
152 126 115
118 125 119
224 126 120
54 126 116
42 126 118
181 124 120
126 126 117
227 125 124
162 128 129
189 125 120
242 128 126
174 125 123
199 127 122
189 126 113
116 124 114
131 124 117
172 124 120
186 125 119
104 125 119
130 126 117
233 126 127
113 124 121
162 127 131
58 132 120
176 126 118
131 125 113
164 123 117
142 126 118
59 125 119
147 125 116
204 131 103
181 125 120
160 124 122
243 128 130
130 129 118
211 126 115
247 127 127
240 128 127
148 125 121
183 125 119
241 128 125
116 123 114
178 124 117
147 125 119
188 124 115
138 124 119
125 127 116
233 126 126
185 126 119
139 124 115
197 131 101
208 126 116
92 128 125
217 126 118
230 128 127
43 133 104
51 136 96
165 126 121
141 128 100
179 126 118
86 130 125
176 133 95
190 129 103
181 123 114
147 126 120
127 125 119
249 129 128
67 133 98
86 132 96
85 133 94
104 130 93
79 132 94
239 126 127
142 125 122
148 126 121
157 126 122
179 126 118
89 125 119
142 125 121
142 126 118
206 125 120
149 124 121
133 125 117
99 125 117
174 126 118
137 140 80
112 144 75
138 125 117
187 131 105
198 130 97
168 133 93
229 129 121
9 130 119
35 133 106
59 132 105
50 134 98
59 129 105
152 136 87
165 137 89
61 130 105
130 141 81
126 140 81
104 142 79
154 137 90
207 130 105
202 129 102
192 130 99
182 131 93
198 127 104
32 127 124
9 130 126
117 128 114
168 133 92
129 132 92
27 131 108
50 132 109
176 125 118
128 125 114
104 126 119
173 126 116
150 126 124
141 124 125
117 126 112
141 130 127
231 128 131
159 136 87
165 136 89
176 132 93
203 129 104
185 130 95
179 131 93
160 125 115
193 126 121
199 124 113
208 125 114
9 128 123
131 129 118
161 127 117
91 132 99
73 131 108
27 130 115
179 131 94
179 131 93
190 127 115
136 126 116
140 124 122
191 126 111
8 130 123
5 130 126
117 129 130
18 130 130
178 130 95
191 125 117
194 127 112
241 126 127
137 130 133
9 130 128
136 124 118
128 130 105
150 132 88
109 134 97
30 128 125
101 130 129
236 128 130
186 130 96
185 131 94
182 131 93
173 131 92
172 125 119
238 127 126
185 126 118
132 125 115
215 124 123
194 124 113
213 126 114
165 132 91
225 126 122
149 125 114
161 127 114
102 130 105
49 133 106
54 132 103
98 138 87
105 132 93
45 130 111
6 130 130
179 132 92
183 131 94
139 126 116
141 125 120
53 131 104
175 125 116
173 127 118
174 127 116
50 131 131
170 132 132
72 129 129
199 129 130
203 130 131
41 131 132
19 128 128
140 126 115
207 125 122
115 124 113
45 132 112
95 133 92
71 136 93
239 127 126
181 124 114
154 126 118
178 126 118
209 125 112
141 129 107
75 131 105
54 132 104
27 131 111
35 135 102
15 130 129
234 129 130
128 128 128
21 130 128
86 138 88
146 125 112
114 126 116
181 126 105
24 130 132
71 130 108
19 128 129
250 129 127
104 128 117
72 132 99
39 131 110
30 132 125
101 140 85
155 125 120
117 125 119
235 127 126
145 126 116
146 129 121
202 129 128
161 130 129
33 131 131
166 130 123
163 128 115
100 129 100
29 131 113
11 128 128
134 129 128
113 135 90
114 138 87
112 141 84
152 126 117
28 129 129
20 130 130
142 132 104
33 131 130
223 127 115
47 130 132
160 131 92
128 128 125
10 128 129
175 130 117
124 128 129
237 129 124
235 128 126
75 132 105
179 129 97
48 129 123
128 129 129
205 132 106
171 135 92
146 130 129
88 129 114
167 133 93
176 128 107
134 125 119
158 124 117
151 125 115
183 138 97
198 129 113
223 125 118
229 129 129
30 131 135
38 130 129
91 129 129
31 131 134
35 129 130
163 135 91
169 133 93
181 132 97
208 131 105
170 133 94
181 134 97
159 131 91
239 128 127
236 129 127
237 129 127
201 131 131
166 131 90
177 135 88
178 134 89
178 134 90
205 131 102
191 131 95
196 132 97
204 131 101
125 136 88
190 134 97
77 144 84
155 122 115
103 123 121
145 125 118
136 122 118
216 129 108
204 131 102
195 129 102
196 129 100
197 131 100
194 130 98
193 131 97
179 133 94
210 129 111
203 126 113
163 129 134
128 123 116
141 124 122
147 126 117
106 127 112
95 124 119
219 130 110
226 127 123
211 130 105
206 129 104
201 131 102
140 130 107
180 132 92
234 127 126
130 123 119
241 128 128
121 124 117
212 128 125
231 129 127
240 129 127
240 129 127
243 129 127
225 131 126
161 128 129
143 128 128
111 130 127
229 127 127
95 126 118
94 125 117
67 125 119
99 125 117
141 122 112
115 127 119
149 126 117
231 127 125
82 125 118
180 126 121
144 125 119
126 124 114
237 127 123
104 125 117
70 130 105
106 127 121
174 122 119
110 127 118
140 125 119
222 127 123
184 127 121
158 127 122
182 125 120
164 124 115
45 126 120
166 130 123
121 127 120
100 127 115
94 125 118
166 124 114
171 126 120
219 131 107
157 128 125
138 129 128
230 127 126
90 123 116
70 127 122
114 128 116
75 127 126
83 127 125
208 129 123
237 129 125
238 129 127
144 127 122
140 127 123
149 128 122
131 128 127
202 127 123
68 125 121
109 124 119
124 124 112
98 125 114
232 127 125
148 125 121
135 125 117
122 124 114
107 126 119
202 124 114
227 124 123
86 128 128
87 128 128
63 128 120
85 129 120
194 125 118
79 125 117
65 127 116
154 127 122
74 125 122
137 124 116
165 123 119
168 126 121
82 124 116
75 125 117
106 125 116
102 123 122
245 128 128
249 129 128
250 129 128
250 127 129
186 127 123
122 133 109
239 128 126
237 128 128
199 128 126
158 126 122
156 128 119
133 127 128
125 122 112
116 126 117
234 125 127
118 125 120
134 126 120
224 126 126
158 126 116
132 127 121
203 125 115
212 123 119
76 126 116
183 125 122
49 127 116
71 124 121
83 125 116
145 128 128
108 129 128
139 128 125
248 129 129
248 129 128
249 129 128
128 127 124
116 127 123
224 126 126
244 128 128
244 129 128
209 127 126
137 128 125
157 128 121
144 129 118
120 124 112
75 125 116
229 127 125
120 126 120
222 127 125
105 126 112
87 125 114
212 124 117
214 125 118
208 125 115
91 132 113
249 127 127
57 126 121
124 126 109
72 126 116
81 127 115
222 130 129
139 128 124
54 125 121
149 124 121
238 125 125
244 129 130
213 129 128
231 128 128
158 128 123
229 129 129
241 128 127
244 127 127
101 130 121
241 130 127
240 129 127
121 128 125
27 126 126
112 123 117
80 125 115
231 127 125
108 126 117
132 126 122
224 128 123
139 125 111
103 126 116
177 123 117
243 126 124
229 130 128
205 129 126
250 127 127
81 129 129
53 127 127
103 125 111
83 129 128
92 128 127
59 127 116
80 125 117
17 126 116
99 125 112
127 129 126
73 124 120
76 126 115
106 126 110
96 129 128
244 129 127
116 129 128
102 129 128
124 124 122
92 129 128
66 125 118
94 130 117
179 129 121
125 130 120
139 129 118
132 128 125
238 128 127
244 127 127
217 128 125
240 128 128
242 128 128
243 128 125
170 132 118
124 128 122
139 127 124
109 129 122
99 128 125
65 127 116
230 126 128
129 126 122
224 126 126
176 126 120
216 125 112
57 127 127
207 125 112
131 128 122
249 127 127
76 131 125
58 125 118
53 125 119
47 125 120
107 125 113
10 130 120
168 129 123
239 127 127
105 126 111
241 128 126
241 129 127
119 129 121
129 127 119
104 128 126
138 125 119
118 133 113
166 130 123
99 128 120
126 132 115
239 127 127
208 127 127
240 129 128
239 129 128
236 128 129
115 129 121
146 127 124
109 130 131
119 128 129
66 125 122
226 127 123
220 127 123
205 124 119
195 124 110
239 128 126
213 124 114
93 130 128
114 130 117
108 125 119
114 129 119
239 127 127
157 128 124
23 128 125
197 126 128
165 130 122
132 128 123
121 129 123
109 130 128
143 128 125
163 128 125
106 126 114
128 124 120
218 127 124
63 126 119
87 126 110
144 125 114
210 123 113
245 127 127
206 125 112
105 130 121
194 128 111
255 128 128
255 128 128
255 128 128
255 128 128
255 128 128
255 128 128
255 128 128
255 128 128
255 128 128
255 128 128
255 128 128
255 128 128
255 128 128
255 128 128
255 128 128
255 128 128
255 128 128
255 128 128
255 128 128
255 128 128
255 128 128
255 128 128
255 128 128
255 128 128
255 128 128
255 128 128
255 128 128
255 128 128
255 128 128
255 128 128
255 128 128
255 128 128
255 128 128
255 128 128
255 128 128
255 128 128
255 128 128
255 128 128
255 128 128
255 128 128
255 128 128
255 128 128
255 128 128
255 128 128
255 128 128
255 128 128
255 128 128
255 128 128
255 128 128
255 128 128
255 128 128
255 128 128
255 128 128
255 128 128
255 128 128
255 128 128
255 128 128
255 128 128
255 128 128
255 128 128
255 128 128
255 128 128
255 128 128
255 128 128
255 128 128
255 128 128
255 128 128
255 128 128
255 128 128
255 128 128
255 128 128
255 128 128
255 128 128
255 128 128
255 128 128
255 128 128
255 128 128
255 128 128
255 128 128
255 128 128
255 128 128
255 128 128
255 128 128
255 128 128
255 128 128
255 128 128
255 128 128
255 128 128
255 128 128
255 128 128
255 128 128
255 128 128
255 128 128
255 128 128
255 128 128
255 128 128
255 128 128
255 128 128
255 128 128
255 128 128
255 128 128
255 128 128
255 128 128
255 128 128
255 128 128
255 128 128
255 128 128
255 128 128
255 128 128
255 128 128
255 128 128
255 128 128
255 128 128
255 128 128
255 128 128
255 128 128
255 128 128
255 128 128
255 128 128
255 128 128
255 128 128
255 128 128
255 128 128
255 128 128
255 128 128
255 128 128
255 128 128
255 128 128
255 128 128
255 128 128
255 128 128
255 128 128
255 128 128
255 128 128
255 128 128
255 128 128
255 128 128
